%YAML 1.1
%TAG !u! tag:unity3d.com,2011:
--- !u!1001 &100100000
Prefab:
  m_ObjectHideFlags: 1
  serializedVersion: 2
  m_Modification:
    m_TransformParent: {fileID: 0}
    m_Modifications: []
    m_RemovedComponents: []
  m_ParentPrefab: {fileID: 0}
  m_RootGameObject: {fileID: 1161030129570040}
  m_IsPrefabParent: 1
--- !u!1 &1161030129570040
GameObject:
  m_ObjectHideFlags: 0
  m_PrefabParentObject: {fileID: 0}
  m_PrefabInternal: {fileID: 100100000}
  serializedVersion: 5
  m_Component:
  - component: {fileID: 4820265325387514}
  - component: {fileID: 114260496331162134}
  m_Layer: 0
  m_Name: MissionGenerator
  m_TagString: Untagged
  m_Icon: {fileID: 0}
  m_NavMeshLayer: 0
  m_StaticEditorFlags: 0
  m_IsActive: 1
--- !u!4 &4820265325387514
Transform:
  m_ObjectHideFlags: 1
  m_PrefabParentObject: {fileID: 0}
  m_PrefabInternal: {fileID: 100100000}
  m_GameObject: {fileID: 1161030129570040}
  m_LocalRotation: {x: -0, y: -0, z: -0, w: 1}
  m_LocalPosition: {x: 0, y: 0, z: 0}
  m_LocalScale: {x: 1, y: 1, z: 1}
  m_Children: []
  m_Father: {fileID: 0}
  m_RootOrder: 0
  m_LocalEulerAnglesHint: {x: 0, y: 0, z: 0}
--- !u!114 &114260496331162134
MonoBehaviour:
  m_ObjectHideFlags: 1
  m_PrefabParentObject: {fileID: 0}
  m_PrefabInternal: {fileID: 100100000}
  m_GameObject: {fileID: 1161030129570040}
  m_Enabled: 1
  m_EditorHideFlags: 0
  m_Script: {fileID: 11500000, guid: 8cacd6d0c0a292a4ea250ef436cdef8c, type: 3}
  m_Name: 
  m_EditorClassIdentifier: 
  difficultyRandomness: 0.1
  minRequiredAgents: 1
  maxRequiredAgents: 3
  durationMin: 3
  durationMax: 10
  baseSuccessChanceMin: 0.3
  baseSuccessChanceMax: 0.95
  missionTemplateList:
  - Title: Assassinate
    Description: 'A dictator has recently risen to power. Send a capable agent in
      to take care of him. Your agent will need to have no qualms with killing in
      this mission. '
    TraitEffects:
    - Trait: 1
      SuccessModifier: -1
    - Trait: 2
      SuccessModifier: 10
    - Trait: 8
      SuccessModifier: 0.5
  - Title: Infiltration
    Description: 'There are activities in this region that have drawn our attention.
      We need to know more about what is going on here, select and agent who will
      merge in without issue. '
    TraitEffects:
    - Trait: 6
      SuccessModifier: 0.5
    - Trait: 8
      SuccessModifier: 0.7
  - Title: Sabotage
    Description: This asset has become a threat to our organization. We need an agent
      to move in and take out the asset the more thorough the are the better.
    TraitEffects:
    - Trait: 1
      SuccessModifier: -0.5
    - Trait: 9
      SuccessModifier: 0.7
    - Trait: 10
      SuccessModifier: 0.5
  - Title: Steal
    Description: 'We must acquire this object, send in your most capable thief and
      take the item as quickly as possible. '
    TraitEffects:
    - Trait: 3
      SuccessModifier: 0.5
    - Trait: 6
      SuccessModifier: 0.5
    - Trait: 10
      SuccessModifier: -0.5
  - Title: Hide evidence
    Description: An agent from one our other branches has left evidence behind by
      accident, we need you to go in and clean up after them
    TraitEffects:
    - Trait: 6
      SuccessModifier: 0.3
    - Trait: 7
      SuccessModifier: -1
  - Title: Frame
    Description: 'The only thing that can make a successful mission better is making
      someone else take the blame. '
    TraitEffects:
    - Trait: 8
      SuccessModifier: 1
    - Trait: 5
      SuccessModifier: 0.5
  - Title: Protect
    Description: 'We have a key asset on the move who has been targeted by several
      other organizations, we need to make sure that they get through the next 24
      hours  safely. '
    TraitEffects:
    - Trait: 1
      SuccessModifier: 0.5
    - Trait: 2
      SuccessModifier: -0.5
    - Trait: 10
      SuccessModifier: -0.5
